<svg width="105" height="74" viewBox="0 0 105 74" fill="none" xmlns="http://www.w3.org/2000/svg">
<g clip-path="url(#clip0)">
<path d="M8.11812 40.1938C7.28458 41.077 6.93951 41.9652 7.08292 42.8585C7.24519 43.7936 7.9232 44.7462 9.11695 45.7163L9.34621 45.9184L9.29168 46.2044L9.01798 47.3817L9.00283 47.4827C8.71668 48.7627 8.80791 49.6486 9.27653 50.1404C9.81516 50.5898 10.7719 50.644 12.1468 50.3031L12.4942 50.2293L12.679 50.5254C12.8952 50.878 13.143 51.2101 13.4193 51.5178L13.4345 51.5329L13.4567 51.5703C14.1226 52.3302 14.739 52.6856 15.3059 52.6364C15.9024 52.5131 16.4771 51.9604 17.0299 50.9781L17.2814 50.5416C17.8436 51.0206 17.9223 51.5363 17.5177 52.0887L17.3157 52.3626C16.7286 53.1326 16.1071 53.552 15.4513 53.6207C14.778 53.744 14.0802 53.4947 13.3577 52.8729C12.9383 53.5782 12.2279 54.0835 11.2267 54.3887C11.9519 53.6186 12.3612 52.7897 12.4548 51.9018L12.0327 51.3611C10.3999 51.698 9.2533 51.5353 8.59279 50.873C7.99087 50.3597 7.53706 49.5577 7.23139 48.467C5.80534 49.3818 4.81122 50.7127 4.24902 52.4596C3.84504 54.0535 4.03255 55.2948 4.81156 56.1834C5.15195 56.5352 5.55601 56.8191 6.00228 57.0201C6.82573 57.4102 7.90098 57.652 9.22805 57.7457L9.87138 57.679C10.8921 57.526 12.0216 57.1855 13.2598 56.6573C13.3486 56.0355 13.7085 55.3766 14.3394 54.6807L14.3838 54.6211L16.7582 53.3923L21.4928 50.9195L19.5477 50.6083L19.1255 50.5709C18.4982 50.4921 17.8793 50.3568 17.2763 50.1667L16.9137 50.0404C13.688 48.8412 11.2688 45.9322 9.65627 41.3134L9.50073 40.8547C9.4462 40.6721 9.4462 40.5609 9.50073 40.5212C9.82122 40.5461 10.1885 40.7014 10.6026 40.987C13.0844 48.0877 17.8123 50.8262 24.7863 49.2026H24.7933C25.9652 48.9168 27.1167 48.5532 28.2403 48.1143C35.2533 44.7041 40.3899 39.3129 43.65 31.9408L43.7389 31.6821L43.754 31.6447C45.37 32.0738 46.8297 31.7138 48.1332 30.5644L50.0864 27.7218L50.1016 27.6925L50.1389 27.6329C54.7059 18.9579 63.8745 16.6707 77.6448 20.7714L78.9577 19.9872C84.4417 20.9398 88.1556 24.093 90.0994 29.4468V29.4539L90.1065 29.4832C91.142 33.2781 90.7623 37.3023 88.9673 41.556C88.5277 41.5789 88.1029 41.7222 87.7392 41.9703C87.5567 42.4985 87.4706 42.9279 87.4807 43.2587C87.4836 43.5687 87.526 43.877 87.6069 44.1763C88.0919 44.5012 88.6042 44.7836 89.138 45.0201C89.2053 45.1548 89.2151 45.3448 89.1673 45.59C89.8628 45.3926 90.2597 45.2077 90.358 45.0352C90.3122 42.0265 90.9495 40.1365 92.2698 39.3651C94.3119 38.5459 96.3268 39.4514 98.3143 42.0814C100.267 44.6475 100.891 48.5286 100.186 53.7248C102.138 53.4236 103.593 54.0505 104.551 55.6054C105.31 56.849 105.108 57.9915 103.945 59.0331C102.779 60.0829 101.43 60.9085 99.9646 61.4684L100.579 62.3345C101.069 63.0601 101.508 63.8196 101.892 64.6071C102.372 65.5853 102.777 66.5988 103.104 67.6387L102.934 67.9722C101.725 70.1731 100.162 71.7917 98.2436 72.8278L97.874 72.9976L96.9307 71.6465C96.1094 71.9542 95.2514 72.1533 94.3786 72.2386L94.2523 71.9274C93.9716 72.2026 93.6675 72.4528 93.3434 72.6752L93.098 72.8591L92.8243 72.6964C91.775 72.1239 90.8376 71.3667 90.057 70.4611L89.956 72.1043L78.983 72.4549L78.5689 69.3091C77.3307 71.2979 75.3381 72.3835 72.591 72.5661H72.5688C70.5072 72.6334 68.828 71.8092 67.5312 70.0933C66.3819 71.4157 65.0625 72.3879 63.5732 73.0097L63.248 73.1431L63.0117 72.8985C62.6119 72.4829 62.282 72.0051 62.0351 71.4838L61.821 71.9284L61.5917 71.98C60.2301 72.286 58.8176 72.286 57.456 71.98L56.6349 71.5576V70.0175C55.8013 71.3182 54.6436 72.3794 53.2758 73.0966L53.0536 73.2077L52.8395 73.1067C52.1935 72.8121 51.6314 72.3605 51.2044 71.793C49.7371 72.0647 48.2303 72.0396 46.7728 71.7192L46.4546 71.6525L46.388 71.3342C46.0511 69.7118 45.8655 68.0616 45.8335 66.4049C44.4582 69.0344 42.7665 71.4857 40.7959 73.7039L40.5374 74L40.196 73.8151C38.1983 72.7641 36.5461 71.5552 35.2392 70.1883C34.4009 72.177 32.8278 73.2084 30.5197 73.2825H30.4601C29.1533 73.1478 28.0238 72.7827 27.0718 72.1871C26.9387 72.1083 26.8102 72.022 26.687 71.9284C26.2157 71.5828 25.7572 71.087 25.3114 70.4409C24.5299 71.4671 23.5086 72.2857 22.3371 72.8248L21.9594 72.9945L21.0202 71.6465C20.1708 71.9605 19.2833 72.1593 18.3812 72.2376L18.3438 71.9264C18.061 72.1992 17.7571 72.4493 17.4349 72.6742L17.1884 72.8591L16.9147 72.6964C15.6422 71.9857 14.6164 71.1123 13.8374 70.0761L13.5415 69.6537L13.3789 69.395C13.4038 69.6766 13.32 70.0788 13.1274 70.6016L13.0679 70.7714C12.1663 72.3262 10.7655 73.0963 8.86548 73.0814H8.81397C6.39751 72.812 4.73783 71.9025 3.83494 70.353L3.7905 70.2792L3.77535 70.1903C3.28635 67.33 3.26146 64.4095 3.70163 61.5412L3.71678 61.4401L3.76121 61.3664L3.84302 61.2259C1.80562 60.4889 1.02628 59.158 1.505 57.2333C1.9763 56.567 2.70616 56.2834 3.69456 56.3824C2.9748 55.3214 2.83678 53.9174 3.28048 52.1706L3.29563 52.1332L3.31785 52.0958C4.29413 49.9198 5.94135 47.9829 8.25951 46.2852C6.98025 45.1945 6.26016 44.1065 6.09924 43.0212C5.89186 41.9157 6.25679 40.8203 7.19402 39.735C7.60338 39.355 8.02756 39.3847 8.46655 39.8239L8.11913 40.1938H8.11812ZM4.95901 9.71926L4.70753 10.1558C-1.41745 20.5582 0.110597 30.0255 9.29168 38.5577C9.60745 39.0711 9.64953 39.5548 9.41792 40.0089L9.16644 39.7724L9.05535 39.6713C-0.92022 30.6682 -2.65295 20.6596 3.85716 9.6455L4.95901 7.92052C5.22025 8.66562 5.23506 9.24533 5.00345 9.65964L4.95901 9.71926ZM8.73217 17.4175L8.95435 17.8621L8.07974 18.3209L7.8525 17.8864C6.13627 14.7133 5.91677 11.1603 7.19402 7.2273L7.20109 7.20507L7.23038 7.09391L7.2526 7.07875L7.23745 7.0636L7.4152 6.55328C7.7361 5.66018 8.11184 4.78778 8.54028 3.94106C8.88029 3.25997 9.26239 2.57651 9.68656 1.8907C10.0471 1.22497 10.4655 0.592292 10.9369 0C11.2062 0.596886 11.1567 1.25575 10.7884 1.97659L10.5369 2.39899C9.0678 4.83639 8.11408 7.14814 7.67576 9.33425C7.08865 12.2702 7.44112 14.9649 8.73318 17.4185L8.73217 17.4175ZM11.0783 13.0217L11.1227 13.5178L10.1309 13.6189L10.0794 13.1227C9.798 10.1174 10.2565 7.65509 11.455 5.73576C12.0173 4.8177 12.7507 4.0163 13.6153 3.37517C14.1703 2.94658 14.7795 2.59321 15.4271 2.32422C15.4614 2.83756 15.1877 3.35327 14.606 3.87134L14.2142 4.16742C13.1623 4.96331 12.3319 6.01577 11.8024 7.22427C11.1022 8.82293 10.8605 10.7551 11.0773 13.0207L11.0783 13.0217ZM42.9845 29.757C42.2203 29.53 41.8109 29.1932 41.7564 28.7465H42.9915L43.243 28.7172H43.3026C45.1326 28.4558 46.1783 27.3308 46.4395 25.342L46.4324 25.3572C46.5704 24.0004 46.1389 23.1812 45.1377 22.8996C44.0873 22.8996 43.2366 23.3634 42.5855 24.2911L41.6382 25.5937C41.4349 25.0617 41.4509 24.4707 41.6826 23.9505L41.7836 23.7211C42.568 22.6008 43.578 21.9989 44.8135 21.9153C45.3858 20.252 45.44 18.3495 44.9761 16.2079C43.136 9.44945 39.9028 5.05736 35.2766 3.03159C31.0005 1.16817 25.3778 1.57238 18.4085 4.24422C17.9371 4.41668 17.3648 4.38704 16.6915 4.15529C16.8262 3.9478 17.105 3.73559 17.5278 3.51866C25.0546 0.551075 31.1779 0.111158 35.8977 2.19891C40.6619 4.25702 44.0082 8.85863 45.9365 16.0037L45.9436 16.0482C46.5496 18.1946 46.5001 20.1981 45.7951 22.0588C47.063 22.5129 47.6056 23.6454 47.4232 25.4562V25.4714C47.1269 27.7316 46.0197 29.1009 44.1015 29.5792L43.9833 29.6085V29.6156L42.9845 29.756V29.757ZM89.0956 46.9451C88.563 50.8781 87.5025 54.4486 85.9142 57.6567L85.5426 58.3813C85.9547 58.6322 86.4082 58.8077 86.8818 58.8997L88.6279 58.9148L89.449 58.7299C90.1149 58.4604 90.7929 57.846 91.4831 56.8867L92.19 55.7691C92.4174 55.4275 92.709 55.1333 93.0485 54.903C92.9796 55.1958 93.0274 55.5039 93.1818 55.762C93.4087 55.8967 93.6332 56.0176 93.8554 56.1248C94.8963 56.6186 95.8555 56.7668 96.7328 56.5694C97.734 56.2932 98.5281 55.4848 99.1152 54.1441L99.1445 53.9521C99.8744 48.9332 99.2405 45.2865 97.2428 43.0121C95.2155 40.7027 93.7803 40.0365 92.9374 41.0133C92.0944 41.9902 91.8281 43.066 92.1385 44.2409C94.654 45.6274 95.5393 48.1096 94.7947 51.6875V51.6946C94.6466 52.3683 94.5119 52.8247 94.3907 53.0639C94.2695 53.303 93.9908 53.5917 93.5545 53.9299C93.4999 53.593 93.5171 53.0676 93.606 52.3535L93.8282 51.4874C94.4341 48.6007 93.7289 46.6022 91.7123 45.492C91.3373 46.1778 90.4644 46.6615 89.0935 46.9431L89.0956 46.9451ZM89.1602 59.9122L84.8548 59.698C84.8844 61.0252 84.8508 61.9727 84.7538 62.5406C84.6568 63.1085 84.4175 63.4861 84.0357 63.6734C84.0404 62.4641 83.9812 61.1269 83.858 59.6616L83.1621 59.6768H83.147L80.7231 59.8102L79.5546 59.9112L79.5475 60.0668C79.4688 61.1232 79.4243 62.1792 79.4142 63.2348C79.39 65.9322 79.5753 68.6273 79.9687 71.2958L83.86 70.9482C83.7611 69.8388 83.7611 68.7228 83.86 67.6135C83.9644 67.123 84.2455 66.6881 84.6498 66.3917C84.6149 67.9145 84.6841 69.4379 84.8568 70.9512H89.1622L89.2359 69.3445L88.6593 68.4047L89.3107 67.3386V65.3246C89.3006 63.4248 89.2511 61.621 89.1622 59.9132L89.1602 59.9122ZM93.7938 62.2486C92.1905 64.1315 90.8536 66.226 89.8207 68.4734C90.6224 69.7794 91.7259 70.8735 93.0384 71.6637C93.4118 71.3941 93.7348 71.061 93.9928 70.6794C93.862 70.0192 93.828 69.3435 93.8918 68.6735C94.3211 68.4832 94.7702 68.3416 95.231 68.2511L95.7763 67.0991L96.3086 68.2238C96.6734 68.2326 97.0358 68.2848 97.3882 68.3794C97.5399 69.1784 97.5945 69.9927 97.5508 70.8047L98.2093 71.7223C99.4818 71.0365 100.656 69.7831 101.731 67.9621L101.879 67.6882L101.606 67.0445C101.251 66.1613 100.866 65.3004 100.451 64.4616C100.023 63.6026 99.536 62.774 98.994 61.9818L98.8738 61.8161C98.3709 61.0905 97.8383 60.3899 97.2761 59.7142L96.854 59.2544C95.7471 60.1596 94.723 61.1616 93.7938 62.2486ZM94.7634 71.316C95.5246 71.2831 96.2708 71.0929 96.9549 70.7572C97.0598 70.066 97.022 69.3606 96.8439 68.6846C96.252 68.6105 95.4629 68.7018 94.4765 68.9585C94.3877 69.521 94.4839 70.3082 94.7654 71.3201L94.7634 71.316ZM89.1551 29.7419C86.9804 24.9587 83.8216 22.1211 79.6788 21.2292C79.2499 21.1207 78.8776 21.1207 78.5618 21.2292C85.1561 25.5967 88.2782 31.5999 87.9281 39.2388C89.7136 36.441 90.123 33.2747 89.1562 29.7399L89.1551 29.7419ZM50.0127 32.251C54.5453 41.9575 54.6712 50.1913 50.3904 56.9524C51.1398 57.5493 51.8919 57.4506 52.6466 56.6563C55.2408 52.1756 56.5356 48.1416 56.5309 44.5542C56.5262 40.9668 56.0057 37.9245 54.9695 35.4271C53.9239 32.9203 52.8803 31.1118 51.8387 30.0016C51.1532 29.5724 50.5442 29.5724 50.0117 30.0016C49.706 30.6578 49.706 31.4079 50.0117 32.252L50.0127 32.251ZM44.1823 32.9847C41.4399 39.9822 36.2589 45.3266 28.6392 49.0177L28.617 49.0329L28.6018 49.048C27.4464 49.4894 26.2661 49.8626 25.067 50.1657L15.0059 55.4133C14.5286 55.9334 14.2326 56.5943 14.1626 57.297V57.3192C14.148 57.5414 14.1555 57.7644 14.1849 57.9851L14.2586 58.3894C14.5596 59.4996 15.583 60.1659 17.3288 60.3882L18.2095 60.4175C18.9745 59.6217 19.7928 58.8789 20.6586 58.1943L21.006 57.9134L21.3171 58.2246C21.8783 58.7655 22.4071 59.3392 22.9007 59.9425C24.7581 59.5434 26.5717 58.9619 28.315 58.2065L29.1361 57.8437H29.1512V57.8285C29.6448 57.5968 30.5423 56.9874 31.8438 56.0005L32.2356 55.7044L32.2649 55.7418C32.8911 56.7685 33.5543 57.5803 34.2545 58.1771C34.7609 58.6227 35.3487 58.9659 35.9855 59.1877C36.9818 58.6426 38.0617 58.267 39.181 58.0761H39.7355L40.4606 59.3898L42.1917 59.3079L43.1612 57.7315L43.5238 57.9094C44.1796 58.2401 44.8061 58.5928 45.4033 58.9674L47.9332 58.545L48.3372 57.9528C53.4542 50.3402 53.5579 41.6378 48.6482 31.8458C47.0108 32.8476 45.5215 33.2252 44.1802 32.9786L44.1823 32.9847ZM56.1794 35.2735C57.4028 37.973 58.0071 41.1164 57.9923 44.7038C57.9775 48.2911 56.3545 52.6799 53.1233 57.8699L53.1385 57.8993C53.2374 58.1067 53.4495 58.3607 53.7747 58.6612L54.1787 58.9199L54.4898 59.1119C55.2012 59.3489 55.9395 59.4956 56.6874 59.5484V59.0381L57.0914 58.9643C58.6285 58.6686 60.205 58.6385 61.7523 58.8754L62.4926 58.639L63.6762 57.8689C64.5664 57.2111 65.3738 56.448 66.0809 55.5963C66.229 56.0948 66.1179 56.8571 65.7476 57.8831L65.1629 59.2675C65.4591 59.6178 66.4307 59.9041 68.0776 60.1265C69.3649 59.0061 70.8987 58.4631 72.6789 58.4975H72.686C74.718 58.6012 76.3282 59.2008 77.5165 60.2962L78.5669 60.1851V58.8471L81.3412 58.8694L82.1693 57.4708C84.3441 53.5823 85.657 49.2495 86.1081 44.4724V44.4633C86.1923 43.5504 86.2465 42.6325 86.2707 41.7096C86.2607 41.6453 86.2659 41.5795 86.2859 41.5176C87.1295 34.6925 85.6106 29.2272 81.729 25.1217C81.6042 25.1798 81.4757 25.2294 81.3442 25.2703C80.5996 25.5222 79.9438 25.5273 79.3768 25.2854C79.3277 25.0537 79.5495 24.5653 80.0424 23.8202L80.1686 23.6504C79.362 22.9681 78.5037 22.3495 77.6014 21.8001C64.4081 17.818 55.6552 19.7548 51.3428 27.6107C53.287 29.942 54.914 32.5207 56.1814 35.2796L56.1794 35.2735ZM79.6253 35.5383C78.0471 39.4456 74.9721 43.6279 70.4005 48.085C69.7272 48.5983 69.0566 48.9093 68.3886 49.0177C68.7563 48.4197 69.1974 47.87 69.7016 47.3817C74.1601 43.0344 77.291 38.2512 79.0941 33.0322C79.6906 33.7732 79.868 34.6096 79.6263 35.5413L79.6253 35.5383ZM19.6739 60.372C18.906 61.0961 18.1867 61.8702 17.5207 62.6892L17.3945 62.8448C16.9018 63.4479 16.44 64.0755 16.0108 64.7254C15.2168 65.9215 14.5146 67.1761 13.9102 68.4785C14.7077 69.7853 15.8092 70.8798 17.1208 71.6687C17.5388 71.3469 17.8757 70.9316 18.1045 70.4561C18.0684 69.842 18.0734 69.2262 18.1196 68.6129C18.4919 68.4601 18.8822 68.3555 19.281 68.3016L19.8658 67.0991L20.4506 68.0763L21.3161 68.1874C21.5093 69.1211 21.6208 70.0699 21.6494 71.023L22.0857 71.5555C23.575 70.9438 24.6859 69.8976 25.4185 68.4168C25.5074 67.8173 25.4975 67.2073 25.3892 66.611L25.2044 66.034L25.1892 65.9966L25.1822 65.9815V65.9663C24.8146 64.9132 24.3466 63.898 23.7844 62.9347C23.2045 61.9417 22.5333 61.0049 21.7797 60.1366L20.9515 59.2483C20.5125 59.6087 20.0883 59.9813 19.679 60.366L19.6739 60.372ZM26.692 61.3209C26.5197 62.3671 26.385 63.3591 26.288 64.2969C26.051 66.5821 26.0561 68.5485 26.3032 70.1964L26.688 70.6006C26.8077 70.7256 26.9363 70.8417 27.0728 70.9482C28.01 71.6933 29.1738 72.1376 30.5642 72.2811C32.3497 72.2218 33.5802 71.4397 34.2555 69.9346C34.1213 69.3171 33.9117 68.7184 33.6314 68.1521L33.4092 67.6933L33.9051 67.471C34.8477 67.0762 35.4668 66.1954 35.7623 64.8284L35.6735 64.1211V64.114C35.5988 63.7021 35.49 63.2972 35.3483 62.9034C35.115 62.2408 34.7475 61.6336 34.2686 61.1198L34.2091 61.0531C33.6192 60.4807 32.9051 60.0525 32.1225 59.8021C30.2581 59.6673 28.9018 59.8449 28.0534 60.3346C27.2051 60.8244 26.754 61.1302 26.7001 61.2522L26.685 61.326L26.692 61.3209ZM26.1446 65.7228L26.1517 65.6561V65.649L26.1446 65.7228ZM30.546 65.5378C30.8034 65.5316 31.0544 65.6184 31.2529 65.7824C31.3467 65.8533 31.4228 65.9449 31.4753 66.0501C31.5279 66.1552 31.5555 66.2711 31.5559 66.3887C31.5587 66.5068 31.5325 66.6238 31.4797 66.7295C31.4269 66.8352 31.349 66.9263 31.2529 66.995C31.0604 67.1717 30.8072 67.2672 30.546 67.2618L30.344 67.2466V65.5459L30.546 65.5388V65.5378ZM36.6521 63.9665C36.9726 64.9386 37.6432 65.7527 38.6639 66.4089L39.1447 66.7272L36.4744 69.6952C37.4708 70.8694 38.7501 71.8883 40.3122 72.752C42.5958 70.1293 44.4758 67.1804 45.8901 64.0028L45.9052 63.9735L46.5637 62.4264L46.9576 61.3391C46.6028 61.0332 46.2281 60.7348 45.8335 60.4438L45.782 60.4215L45.7669 60.4064C45.0761 59.92 44.188 59.5572 43.1026 59.318C42.6184 60.363 42.0046 61.3429 41.2756 62.2344C40.6362 61.3297 40.0508 60.3879 39.5224 59.414L39.5072 59.3918L39.2557 59.414C37.6728 59.567 36.3599 60.0331 35.317 60.8126C35.8034 61.4241 36.1697 62.1222 36.3966 62.87C36.5081 63.2236 36.5945 63.5846 36.6551 63.9503V63.9665H36.6521ZM9.16846 59.506C7.16338 59.6502 5.72589 60.3215 4.85599 61.52L4.67117 61.7868C4.2712 64.4828 4.2913 67.2246 4.73076 69.9144C5.52458 71.1479 6.92268 71.8735 8.92507 72.0911C10.3801 72.1012 11.46 71.5262 12.165 70.3661C12.4511 69.5368 12.4535 68.7422 12.172 67.9823C12.7988 67.5367 13.2763 66.9118 13.5415 66.1896C13.6791 65.8261 13.778 65.4492 13.8364 65.0649L13.9253 64.2807L13.8364 63.8442L13.7768 63.5855L13.5405 62.771C12.8107 60.7082 11.3631 59.6202 9.19775 59.507H9.16846V59.506ZM8.7867 65.5388C9.04421 65.534 9.29495 65.6215 9.49366 65.7854C9.58575 65.8574 9.66026 65.9494 9.71153 66.0544C9.7628 66.1595 9.78949 66.2748 9.78958 66.3917C9.7926 66.5092 9.76728 66.6256 9.71576 66.7311C9.66425 66.8367 9.58807 66.9282 9.49366 66.998C9.30056 67.1738 9.04771 67.2692 8.7867 67.2648L8.59481 67.2497V65.5459L8.7867 65.5388ZM14.9474 64.5394L14.9029 64.5172L14.8959 64.6183L14.9474 64.5445V64.5394ZM9.70878 69.1737C9.71027 69.2754 9.68673 69.3759 9.64023 69.4663C9.59373 69.5567 9.52571 69.6342 9.44216 69.6921C9.28087 69.8397 9.06886 69.9194 8.85033 69.9144L8.67258 69.9074V68.4552L8.85033 68.4401C9.06628 68.4344 9.27682 68.5081 9.44216 68.6472C9.52472 68.7077 9.59189 68.7868 9.63821 68.8781C9.68454 68.9694 9.70871 69.0703 9.70878 69.1727V69.1737ZM36.5602 66.0936C36.1834 66.9871 35.6002 67.7785 34.8584 68.4027C35.1002 68.6797 35.2681 69.0134 35.3463 69.3728L37.4358 66.897C37.1075 66.6711 36.8136 66.3988 36.5632 66.0886L36.5602 66.0936ZM30.6046 68.435C30.8226 68.43 31.0351 68.5035 31.2035 68.6422C31.2841 68.7039 31.3494 68.7834 31.3943 68.8746C31.4391 68.9657 31.4623 69.066 31.462 69.1676C31.464 69.2685 31.4415 69.3684 31.3964 69.4587C31.3514 69.549 31.2852 69.627 31.2035 69.6861C31.0389 69.833 30.825 69.9124 30.6046 69.9084L30.4349 69.9013V68.4552L30.6046 68.4401V68.435ZM18.564 68.9585C18.4704 69.521 18.564 70.3082 18.8448 71.3201C19.6081 71.2851 20.3561 71.0935 21.0424 70.7572C21.1007 70.0695 21.0323 69.3769 20.8404 68.7139C20.3274 68.7038 19.5679 68.7853 18.562 68.9585H18.564ZM72.3325 47.2705C75.4101 44.7934 77.8909 41.751 79.7748 38.1434L80.8695 35.8344C81.3483 36.6879 81.3483 37.6206 80.8695 38.6325C78.7931 42.3135 76.1915 45.299 73.0647 47.5888C72.5934 47.9048 72.1594 48.0749 71.7629 48.0991C71.8864 47.7827 72.0813 47.4991 72.3325 47.2705ZM66.1627 62.7043C65.3635 61.2977 64.1206 60.4168 62.434 60.0618C60.7474 59.7067 59.1618 59.6451 57.6772 59.8769L57.6398 63.8078L57.6327 63.823V70.1893C57.6873 70.673 57.7909 70.9667 57.9438 71.0705C59.095 71.2802 60.2675 71.3481 61.4352 71.2726C61.7075 70.7758 61.9017 70.24 62.0108 69.684C62.4422 70.4815 62.9427 71.2396 63.5066 71.9496C64.6866 71.3926 65.7433 70.6047 66.6142 69.6325C65.9848 68.8554 65.5079 67.9664 65.2083 67.0122C66.2048 65.7093 66.5502 64.372 66.2445 63.0004L66.1627 62.7043ZM66.9838 63.1085C66.5549 64.1002 66.4933 65.2572 66.799 66.5797C68.0109 69.9353 69.9221 71.5983 72.5324 71.5687C75.6969 71.3666 77.7091 69.7874 78.5689 66.8313C78.8751 65.913 78.8751 64.9201 78.5689 64.0018L78.4952 63.7654L78.3255 63.2844C77.8225 62.0111 77.0506 61.0588 76.0097 60.4276C75.0974 59.8698 73.9753 59.5589 72.6435 59.4949C71.5414 59.4681 70.4547 59.7585 69.5127 60.3316C68.5411 60.9238 67.7076 61.8332 67.0121 63.06L66.9828 63.1045L66.9838 63.1085ZM85.7678 55.3618C86.5084 53.8319 87.2952 50.9573 88.128 46.738C87.9106 46.1404 87.538 45.6116 87.0484 45.206C86.6141 48.9962 85.5783 53.1363 83.9408 57.6264L83.4671 58.8845H83.7247L84.5165 57.6486C84.9703 56.9035 85.387 56.1413 85.7668 55.3618H85.7678ZM46.8465 64.303C46.7348 66.4822 46.8864 68.6669 47.2979 70.8098C48.5896 71.0517 49.9156 71.0442 51.2044 70.7875L51.6852 70.0397C51.8119 70.4289 51.9085 70.8272 51.974 71.2312C52.1962 71.537 52.5513 71.8233 53.0395 72.0901C54.1296 71.4683 55.2294 70.479 56.339 69.1222C55.836 68.6338 55.3109 67.9503 54.7635 67.0718C55.4768 65.9549 56.1122 64.79 56.6652 63.5855L56.7096 63.4592L57.05 62.5558L56.8278 62.2971L56.6874 62.1566C55.9324 61.3562 55.077 60.6572 54.1423 60.0769C53.8414 60.7331 53.4765 61.4536 53.0476 62.2385L51.9013 64.2292L51.7609 60.4983C50.2947 60.0149 48.7267 59.9281 47.2161 60.2467L46.8536 64.303H46.8465ZM61.8644 66.5383C62.2394 66.5975 62.5969 66.896 62.937 67.4336C62.6618 67.6216 62.4067 67.8373 62.1755 68.0773L62.0573 68.24C61.897 67.7432 61.8285 67.2213 61.8553 66.6999L61.8624 66.5372L61.8644 66.5383ZM73.5606 68.5138C73.4595 68.4123 73.3794 68.2917 73.3249 68.1592C73.2704 68.0266 73.2425 67.8847 73.2428 67.7413C73.2432 67.598 73.2717 67.4561 73.3268 67.3238C73.382 67.1915 73.4626 67.0714 73.5641 66.9703C73.6656 66.8691 73.7861 66.789 73.9185 66.7345C74.051 66.6799 74.1929 66.652 74.3362 66.6523C74.4794 66.6527 74.6212 66.6812 74.7534 66.7364C74.8857 66.7915 75.0057 66.8722 75.1068 66.9738C75.2099 67.0738 75.2919 67.1934 75.3479 67.3257C75.4039 67.458 75.4327 67.6002 75.4327 67.7438C75.4327 67.8875 75.4039 68.0297 75.3479 68.1619C75.2919 68.2942 75.2099 68.4139 75.1068 68.5138C75.0061 68.617 74.8859 68.6989 74.7531 68.7549C74.6204 68.8108 74.4778 68.8396 74.3337 68.8396C74.1896 68.8396 74.047 68.8108 73.9142 68.7549C73.7815 68.6989 73.6612 68.617 73.5606 68.5138Z" fill="#010101"/>
<path d="M17.2772 50.5345L17.0257 50.971C16.4736 51.9533 15.899 52.506 15.3018 52.6293C14.7348 52.6785 14.1184 52.3231 13.4525 51.5632L13.4303 51.5258L13.4152 51.5107C13.1389 51.203 12.8911 50.8709 12.6749 50.5183L12.4901 50.2232L12.1426 50.297C10.7664 50.6372 9.80967 50.583 9.27238 50.1343C8.80107 49.6459 8.70984 48.76 8.99868 47.4766L9.01383 47.3756L9.29157 46.2044L9.35115 45.9154L9.1219 45.7133C7.92477 44.7452 7.24508 43.7936 7.08282 42.8585C6.9394 41.9652 7.28447 41.077 8.11801 40.1937L8.46543 39.8239L9.05019 39.6753L9.16128 39.7764L9.41276 40.0129C9.64437 39.5588 9.60229 39.0751 9.28652 38.5617C0.108806 30.0268 -1.41756 20.5582 4.70742 10.1558L4.9589 9.71924L5.00334 9.65962L7.1929 7.22424C5.91364 11.1572 6.13313 14.7102 7.85138 17.8833L8.07963 18.3209L8.95223 17.8621L8.73004 17.4174C7.43933 14.9679 7.08787 12.2735 7.67565 9.33423C8.69819 7.90768 9.98073 6.68714 11.4559 5.73675C10.2574 7.65608 9.7989 10.1184 10.0803 13.1237L10.1318 13.6199L11.1236 13.5188L11.0792 13.0227C10.8624 10.7577 11.1041 8.8256 11.8043 7.22627C12.8977 5.7098 14.5271 4.68782 16.6924 4.16032C17.3657 4.39207 17.938 4.42171 18.4094 4.24925C25.378 1.57472 31 1.16747 35.2754 3.02752C39.9017 5.05599 43.1335 9.45044 44.9709 16.2109C45.4348 18.3525 45.3806 20.255 44.8083 21.9183C43.5755 22.0026 42.5656 22.6045 41.7785 23.7242L41.6775 23.9535C41.4457 24.4737 41.4297 25.0647 41.6331 25.5967L42.5804 24.2941C43.2315 23.3664 44.0822 22.9026 45.1325 22.9026C46.1337 23.1842 46.5653 24.0034 46.4273 25.3602L46.4343 25.345C46.1731 27.3338 45.1275 28.4588 43.2974 28.7202H43.2379L42.9864 28.7495H41.7563C41.8108 29.1935 42.2202 29.5303 42.9844 29.76L43.9832 29.6196L44.0125 29.6863V29.6933C44.0384 30.3548 43.9509 31.0158 43.7539 31.6477L43.7388 31.6851L43.6499 31.9438C40.3905 39.3139 35.2539 44.7041 28.2402 48.1143C27.1166 48.5532 25.9651 48.9167 24.7932 49.2026H24.7862C17.8121 50.8262 13.0849 48.0873 10.6045 40.986C10.1904 40.6997 9.82314 40.5444 9.50265 40.5201C9.44811 40.5599 9.44811 40.6711 9.50265 40.8536L9.65818 41.3124C11.2741 45.9312 13.6932 48.8402 16.9156 50.0393C17.0822 50.1659 17.2082 50.3383 17.2782 50.5355L17.2772 50.5345ZM16.7601 53.3923L14.3857 54.6211L14.3413 54.6807C13.7097 55.3766 13.3499 56.0355 13.2617 56.6573C12.0235 57.1854 10.894 57.526 9.8733 57.6789L9.22996 57.7456C7.90357 57.652 6.82831 57.4101 6.00419 57.0201C5.55737 56.8199 5.15261 56.5367 4.81145 56.1854C4.03244 55.2968 3.84493 54.0555 4.24891 52.4616C4.81111 50.7147 5.8049 49.3821 7.23027 48.4639C7.53594 49.5546 7.98975 50.3566 8.59168 50.87C9.25285 51.5315 10.3995 51.6942 12.0315 51.3581L12.4537 51.8987C12.3601 52.7873 11.9508 53.6163 11.2256 54.3856C12.2268 54.0798 12.9371 53.5745 13.3566 52.8698C14.0764 53.4916 14.7742 53.7409 15.4502 53.6176C16.106 53.5502 16.7275 53.1309 17.3146 52.3595C17.2304 52.8432 17.0456 53.1888 16.7601 53.3963V53.3923ZM91.7142 45.494C93.7341 46.6042 94.4394 48.6027 93.8301 51.4894L93.6079 52.3555C93.519 53.0709 93.5018 53.5964 93.5564 53.9319C93.9906 53.5863 94.2694 53.2976 94.3926 53.0659C94.5158 52.8341 94.6505 52.3777 94.7966 51.6966V51.6895C95.5413 48.1116 94.6559 45.6294 92.1404 44.2429C91.8199 43.0586 92.0862 41.9827 92.9393 41.0153C93.7924 40.0479 95.2275 40.7142 97.2447 43.0141C99.2424 45.2892 99.8763 48.9358 99.1464 53.9541L99.1171 54.1461C98.53 55.4834 97.7359 56.2918 96.7347 56.5714C95.8594 56.7688 94.9003 56.6206 93.8573 56.1268C93.6351 56.0183 93.4106 55.8974 93.1837 55.764C93.0293 55.5059 92.9815 55.1978 93.0504 54.905C92.7109 55.1353 92.4193 55.4294 92.1919 55.771L91.485 56.8887C90.7942 57.846 90.1162 58.4604 89.4509 58.7319L88.6299 58.9138L86.8837 58.8986C86.4094 58.8072 85.9553 58.632 85.5424 58.3812L85.9121 57.6557C87.5004 54.4483 88.5608 50.8777 89.0934 46.9441C90.4642 46.6625 91.3372 46.1788 91.7122 45.493L91.7142 45.494ZM48.6491 31.8508C53.5561 41.6415 53.4524 50.3438 48.3381 57.9578L47.9341 58.55L45.4042 58.9724C44.807 58.5965 44.1818 58.2438 43.5287 57.9144L43.1661 57.7365L42.1966 59.313L40.4656 59.3948L39.7404 58.0811H39.186C38.0666 58.272 36.9868 58.6477 35.9905 59.1927C35.3537 58.9709 34.7658 58.6277 34.2594 58.1822C33.5592 57.5853 32.896 56.7735 32.2698 55.7468L32.2406 55.7094L31.8487 56.0055C30.5459 56.9918 29.6463 57.6011 29.1501 57.8335V57.8487H29.135L28.3149 58.2064C26.5711 58.9605 24.7572 59.5407 22.8996 59.9385C22.406 59.3351 21.8772 58.7615 21.316 58.2206L21.0069 57.9144L20.6595 58.1953C19.7937 58.8799 18.9754 59.6226 18.2104 60.4185L17.3297 60.3892C15.5839 60.1668 14.5605 59.5006 14.2595 58.3903L14.1858 57.9861C14.1564 57.7654 14.1489 57.5424 14.1635 57.3202V57.2969C14.2327 56.5929 14.5287 55.9304 15.0068 55.4093L25.0679 50.1616C26.267 49.8585 27.4473 49.4853 28.6027 49.044L28.6179 49.0288L28.6401 49.0136C36.2598 45.3225 41.4408 39.9782 44.1832 32.9806C45.5244 33.2272 47.0137 32.8496 48.6512 31.8478L48.6491 31.8508ZM9.54607 28.4544C9.33304 28.498 9.1229 28.5547 8.91688 28.6242C8.17221 28.8661 7.8258 29.3248 7.87764 30.0005C7.90256 30.4 8.13821 30.59 8.58461 30.5705C9.031 30.5509 9.47975 30.3906 9.93086 30.0895C10.3746 29.7735 11.0849 29.6327 12.0618 29.6671L11.7882 29.3417C11.5651 29.148 11.3289 28.9701 11.0812 28.8091C10.8521 28.6403 10.5809 28.5379 10.2975 28.513L9.55011 28.4534L9.54607 28.4544ZM11.5104 34.9451L11.4094 35.1522C11.3242 35.3523 11.215 35.5413 11.0842 35.7151L10.7732 36.2203C10.7038 36.3759 10.6783 36.5475 10.6994 36.7165C10.7095 36.9186 10.8795 37.1308 11.2095 37.3532C12.0383 37.5162 12.6005 37.2467 12.8961 36.5447C13.1916 35.8428 13.057 35.194 12.4921 34.5984C12.0197 34.1003 11.4573 33.6961 10.8348 33.407V33.4141L10.9832 33.7173C11.179 34.1168 11.3519 34.527 11.5013 34.9461L11.5104 34.9451ZM17.662 25.6674C17.4238 25.5861 17.1787 25.5266 16.9298 25.4895L16.338 25.4522C16.1034 25.4954 15.8801 25.586 15.6816 25.7184C15.4832 25.8507 15.3137 26.0222 15.1836 26.2222C14.9271 26.6122 15.0159 26.8787 15.4502 27.0215C15.9316 27.1592 16.4441 27.1411 16.9146 26.97C17.4277 26.7975 18.1182 26.7234 18.986 26.7477C18.8495 26.5 18.6659 26.2813 18.4457 26.1039C18.2158 25.9082 17.9494 25.7598 17.662 25.6674ZM18.7941 32.2106L17.9508 33.5728C17.7489 33.8982 17.7825 34.1966 18.0518 34.4681C18.4215 34.8582 18.8928 34.9814 19.4658 34.8379L19.7546 34.5196C20.0239 34.0851 20.1276 33.5718 20.0657 32.9796C20.0332 32.7042 19.9434 32.4387 19.802 32.2002C19.6605 31.9617 19.4706 31.7556 19.2446 31.5952C18.8175 31.2853 18.3315 31.0662 17.8165 30.9515V30.9666H17.765C17.8586 31.001 18.0165 31.1357 18.2387 31.3708C18.4575 31.6084 18.6533 31.8662 18.8234 32.1408L18.8012 32.2075L18.7941 32.2106ZM15.3684 42.3411L15.5906 42.4745C16.4234 42.8003 17.3509 42.7843 18.172 42.43C19.0087 42.0972 19.7506 41.5635 20.3323 40.8759C21.0918 39.9927 21.1163 39.2203 20.406 38.5587C20.3616 38.3317 20.1791 38.107 19.8586 37.8847L19.8435 37.8695C19.7108 37.6579 19.549 37.466 19.3627 37.2996C19.1703 37.1366 18.946 37.0155 18.7043 36.9439C18.4482 36.8649 18.1796 36.8347 17.9125 36.855C16.8598 36.8565 15.8442 37.2436 15.0573 37.9433C14.6807 38.267 14.3795 38.6693 14.175 39.1221C13.9705 39.5748 13.8676 40.0668 13.8737 40.5636C13.8838 41.1605 14.1157 41.528 14.5695 41.6661C14.7224 41.9228 14.9887 42.1474 15.3684 42.3401V42.3411ZM18.5417 45.5677C18.6437 45.7955 18.8016 45.9937 19.0008 46.1439C19.2 46.2941 19.434 46.3914 19.6809 46.4267C20.2478 46.5263 20.8264 46.5413 21.3978 46.4711C22.0219 46.3983 22.6162 46.1635 23.1218 45.7901C23.6604 45.4 23.8674 44.8129 23.7429 44.0287L22.9733 44.4632C22.6137 44.6409 22.2425 44.7941 21.8624 44.922C21.2987 45.1161 20.7196 45.2621 20.1313 45.3586L18.5406 45.5657" fill="#FDEEE8" fill-opacity="0.99"/>
<path d="M87.9269 39.2388C88.277 31.5999 85.155 25.5967 78.5607 21.2292C78.8765 21.1207 79.2488 21.1207 79.6777 21.2292C83.8205 22.1225 86.9793 24.96 89.154 29.7419C90.1209 33.2754 89.7115 36.4417 87.9259 39.2408L87.9269 39.2388ZM50.0126 30.0006C50.5451 29.5714 51.1541 29.5714 51.8395 30.0006C52.8805 31.1108 53.9241 32.9193 54.9704 35.4261C56.0012 37.9228 56.5217 40.9651 56.5318 44.5532C56.5419 48.1412 55.2468 52.1756 52.6465 56.6563C51.8917 57.4506 51.1397 57.5493 50.3903 56.9524C54.6711 50.1919 54.5452 41.9581 50.0126 32.251C49.7069 31.4069 49.7069 30.6567 50.0126 30.0006ZM51.3447 27.6097C55.6598 19.7538 64.4127 17.817 77.6033 21.7991C78.5065 22.3474 79.3659 22.965 80.1736 23.6464L80.0473 23.8161C79.5538 24.5612 79.332 25.0496 79.3818 25.2814C79.9487 25.5232 80.6045 25.5182 81.3492 25.2662C81.4806 25.2254 81.6091 25.1758 81.7339 25.1177C85.6155 29.2231 87.1345 34.6884 86.2908 41.5135C86.2708 41.5754 86.2656 41.6412 86.2757 41.7055C86.2508 42.6285 86.1966 43.5464 86.1131 44.4592V44.4663C85.6593 49.2434 84.3463 53.5762 82.1743 57.4647L81.3461 58.8633L78.5718 58.8411V60.1871L77.5215 60.2982C76.3331 59.2028 74.7229 58.6032 72.6909 58.4995H72.6838C70.9036 58.4651 69.3698 59.0081 68.0825 60.1285C66.4349 59.9062 65.4634 59.6198 65.1678 59.2695L65.7526 57.8851C66.1222 56.8584 66.2333 56.0961 66.0858 55.5983C65.3787 56.45 64.5713 57.2131 63.6812 57.8709L62.4975 58.641L61.7572 58.8774C60.2099 58.6405 58.6335 58.6706 57.0963 58.9664L56.6923 59.0401V59.5504C55.9424 59.4988 55.2021 59.3528 54.4886 59.1159L54.1776 58.9239L53.7736 58.6652C53.4484 58.3641 53.2363 58.1101 53.1373 57.9033L53.1222 57.874C56.3479 52.6927 57.9729 48.3056 57.9972 44.7129C58.0214 41.1201 57.4171 37.9767 56.1843 35.2826C54.9169 32.5237 53.2899 29.945 51.3457 27.6137L51.3447 27.6097ZM79.095 33.0322C77.2946 38.2532 74.1637 43.0364 69.7025 47.3817C69.1983 47.87 68.7572 48.4196 68.3895 49.0177C69.0628 48.9092 69.7334 48.5983 70.4013 48.085C74.973 43.6286 78.048 39.4463 79.6262 35.5383C79.8679 34.6059 79.6905 33.7695 79.0939 33.0291L79.095 33.0322ZM71.7627 48.1012C72.162 48.0762 72.596 47.9061 73.0646 47.5908C76.1914 45.3003 78.793 42.3149 80.8694 38.6345C81.3481 37.624 81.3481 36.6913 80.8694 35.8364L79.7746 38.1454C77.8894 41.753 75.4087 44.7954 72.3324 47.2725C72.0812 47.5011 71.8863 47.7847 71.7627 48.1012ZM84.5163 57.6496L83.7245 58.8845H83.466L83.9397 57.6264C85.5771 53.1356 86.613 48.9955 87.0473 45.206C87.5368 45.6115 87.9095 46.1404 88.1269 46.738C87.2934 50.9572 86.5066 53.8319 85.7667 55.3618C85.3869 56.1413 84.9701 56.9035 84.5163 57.6486" fill="#EC2227" fill-opacity="0.99"/>
<path d="M10.2934 28.5131C10.5769 28.5379 10.8481 28.6403 11.0772 28.8091C11.3248 28.9701 11.5611 29.148 11.7841 29.3417L12.0578 29.6671C11.0815 29.6327 10.3712 29.7735 9.92683 30.0895C9.46832 30.3953 9.01957 30.5557 8.58058 30.5705C8.14159 30.5853 7.90593 30.3953 7.87361 30.0006C7.82446 29.3269 8.17222 28.8681 8.91689 28.6242C9.12291 28.5547 9.33305 28.498 9.54608 28.4544L10.2934 28.5141V28.5131ZM10.9893 33.7183L10.8408 33.4151V33.4081C11.4634 33.6971 12.0257 34.1013 12.4982 34.5995C13.0705 35.1869 13.2051 35.8357 12.9021 36.5457C12.5991 37.2558 12.0369 37.5253 11.2155 37.3542C10.8849 37.1319 10.7149 36.9196 10.7055 36.7175C10.6843 36.5485 10.7098 36.3769 10.7792 36.2214L11.0903 35.7161C11.2211 35.5423 11.3303 35.3533 11.4155 35.1532L11.5165 34.9461C11.3671 34.527 11.1941 34.1168 10.9984 33.7173L10.9893 33.7183ZM18.4558 26.108C18.6761 26.2854 18.8596 26.504 18.9961 26.7517C18.1283 26.7268 17.4378 26.8009 16.9247 26.974C16.4542 27.1452 15.9417 27.1632 15.4603 27.0256C15.026 26.8827 14.9372 26.6163 15.1937 26.2262C15.3238 26.0262 15.4933 25.8548 15.6917 25.7224C15.8902 25.59 16.1135 25.4995 16.3481 25.4562L16.9399 25.4936C17.1888 25.5306 17.4339 25.5902 17.6721 25.6714C17.9595 25.7639 18.2259 25.9122 18.4558 26.108ZM18.8255 32.1479C18.6553 31.8733 18.4595 31.6155 18.2407 31.3779C18.0185 31.1408 17.8606 31.006 17.767 30.9737H17.8185V30.9585C18.3335 31.0733 18.8195 31.2924 19.2466 31.6022C19.4727 31.7627 19.6625 31.9688 19.804 32.2073C19.9454 32.4457 20.0353 32.7113 20.0677 32.9867C20.135 33.5788 20.0313 34.0922 19.7566 34.5267L19.4678 34.845C18.8955 34.9879 18.4242 34.8646 18.0539 34.4752C17.7845 34.2057 17.7509 33.9073 17.9529 33.5798L18.7962 32.2177L18.8184 32.151L18.8255 32.1479ZM19.8283 38.0878L18.1862 38.1767C17.2294 38.1424 16.4575 38.4119 15.8704 38.9852C15.2832 39.5585 14.9554 40.0974 14.8867 40.602C14.8126 41.1248 14.7089 41.4802 14.5756 41.6681C14.1218 41.53 13.8899 41.1625 13.8798 40.5656C13.8737 40.0689 13.9766 39.5768 14.1811 39.1241C14.3856 38.6714 14.6867 38.269 15.0634 37.9453C15.8502 37.2457 16.8659 36.8585 17.9185 36.857C18.1857 36.8368 18.4543 36.8669 18.7103 36.9459C18.9521 37.0175 19.1763 37.1386 19.3688 37.3016C19.555 37.4681 19.7169 37.6599 19.8495 37.8716L19.8647 37.8867C19.8801 37.9201 19.8848 37.9575 19.8781 37.9937C19.8715 38.0299 19.8537 38.0632 19.8273 38.0888L19.8283 38.0878ZM20.4121 38.5628C21.1224 39.2243 21.0978 39.9967 20.3384 40.8799C19.7567 41.5675 19.0148 42.1013 18.1781 42.4341C17.357 42.7883 16.4294 42.8043 15.5967 42.4786L15.3745 42.3452C15.2777 42.258 15.2077 42.1452 15.1725 42.0198C16.1393 42.0541 17.0911 41.7901 18.0276 41.2275C18.6194 40.8725 19.0436 40.4578 19.3001 39.9836C19.4791 39.6392 19.6815 39.3077 19.9061 38.9912C20.0399 38.8118 20.2125 38.6649 20.4111 38.5618L20.4121 38.5628ZM20.1374 45.3646C20.7257 45.2682 21.3047 45.1222 21.8684 44.9281C22.2486 44.8002 22.6197 44.6469 22.9794 44.4693L23.7489 44.0328C23.8722 44.8176 23.6651 45.4047 23.1278 45.7941C22.6223 46.1676 22.028 46.4024 21.4039 46.4752C20.8325 46.5453 20.2539 46.5303 19.6869 46.4307C19.44 46.3954 19.2061 46.2981 19.0069 46.1479C18.8077 45.9977 18.6497 45.7995 18.5477 45.5718L20.1384 45.3646" fill="#0C0808" fill-opacity="0.99"/>
<path d="M19.903 38.9872C19.6784 39.3037 19.476 39.6352 19.2971 39.9796C19.0405 40.4512 18.6163 40.8658 18.0245 41.2235C17.0873 41.7861 16.1356 42.0502 15.1694 42.0158C15.2046 42.1412 15.2746 42.254 15.3714 42.3412C14.9917 42.1485 14.7254 41.9238 14.5725 41.6672C14.7072 41.4799 14.8109 41.1245 14.8836 40.6011C14.9563 40.0776 15.2842 39.5387 15.8673 38.9842C16.4544 38.4116 17.2263 38.1421 18.1831 38.1758L19.8253 38.0869C19.8516 38.0612 19.8694 38.028 19.8761 37.9918C19.8828 37.9556 19.8781 37.9182 19.8626 37.8848C20.1831 38.1071 20.3656 38.3317 20.41 38.5588C20.2114 38.6619 20.0388 38.8088 19.905 38.9883" fill="#FBFBFB" fill-opacity="0.99"/>
<path d="M89.3105 65.3246V67.3376L88.6591 68.4037L89.2358 69.3435L89.1621 70.9502H84.8567C84.684 69.4372 84.6148 67.9142 84.6496 66.3917C84.2462 66.6909 83.9672 67.1284 83.8659 67.6205C83.767 68.7299 83.767 69.8459 83.8659 70.9553L79.9746 71.3029C79.5813 68.6343 79.3959 65.9392 79.4202 63.2419C79.4302 62.1856 79.4747 61.1296 79.5535 60.0739L79.5605 59.9183L80.729 59.8172L83.1529 59.6838H83.1681L83.8639 59.6687C83.9871 61.1346 84.0464 62.4719 84.0417 63.6805C84.4214 63.4979 84.6608 63.1203 84.7597 62.5477C84.8587 61.975 84.8924 61.0275 84.8607 59.7051L89.1661 59.9193C89.255 61.6264 89.3045 63.4302 89.3146 65.3307L89.3105 65.3246ZM96.8538 59.2544L97.276 59.7131C97.8382 60.3868 98.3708 61.0875 98.8737 61.815L98.9919 61.9848C99.5339 62.777 100.021 63.6056 100.449 64.4646C100.863 65.3034 101.248 66.1644 101.604 67.0476L101.877 67.6913L101.729 67.9651C100.652 69.7841 99.4777 71.0375 98.2072 71.7253L97.5487 70.8077C97.5923 69.9957 97.5377 69.1814 97.3861 68.3825C97.0337 68.2878 96.6712 68.2356 96.3064 68.2268L95.7762 67.0991L95.2288 68.2541C94.7681 68.3446 94.3189 68.4863 93.8896 68.6765C93.8259 69.3465 93.8599 70.0222 93.9906 70.6824C93.7327 71.064 93.4096 71.3972 93.0362 71.6667C91.7238 70.8765 90.6203 69.7824 89.8186 68.4764C90.8519 66.2279 92.1895 64.1323 93.7937 62.2486C94.7229 61.1616 95.747 60.1596 96.8538 59.2544ZM94.4714 68.9554C95.4577 68.6988 96.2468 68.6075 96.8387 68.6816C97.0189 69.3582 97.0584 70.0647 96.9548 70.7572C96.2716 71.094 95.5261 71.2857 94.7653 71.3201C94.4838 70.3095 94.3875 69.5223 94.4764 68.9585L94.4714 68.9554ZM20.9524 59.2574L21.7805 60.1456C22.5342 61.014 23.2054 61.9508 23.7853 62.9438C24.3474 63.9071 24.8155 64.9223 25.183 65.9754V65.9875L25.1901 66.0027L25.2053 66.0401L25.3901 66.6171C25.4984 67.2134 25.5083 67.8234 25.4194 68.4229C24.6895 69.905 23.5786 70.9512 22.0865 71.5616L21.6503 71.029C21.6217 70.076 21.5102 69.1272 21.317 68.1935L20.4514 68.0823L19.8657 67.0991L19.2809 68.2986C18.8821 68.3524 18.4918 68.457 18.1195 68.6098C18.0733 69.2232 18.0683 69.839 18.1043 70.453C17.8756 70.9286 17.5387 71.3439 17.1206 71.6657C15.8091 70.8767 14.7076 69.7822 13.91 68.4754C14.5145 67.1731 15.2167 65.9185 16.0107 64.7223C16.4399 64.0725 16.9017 63.4448 17.3943 62.8417L17.5206 62.6861C18.1866 61.8672 18.9059 61.0931 19.6738 60.369C20.0832 59.9843 20.5073 59.6117 20.9463 59.2513L20.9524 59.2574ZM26.703 61.2502C26.7522 61.1154 27.2033 60.8096 28.0563 60.3326C28.9094 59.8556 30.2658 59.6781 32.1254 59.8C32.908 60.0505 33.6221 60.4787 34.212 61.0511L34.2715 61.1178C34.7495 61.6324 35.116 62.2403 35.3481 62.9034C35.4873 63.2961 35.5937 63.6997 35.6663 64.1099V64.117L35.7551 64.8244C35.4589 66.1913 34.8398 67.0721 33.8979 67.4669L33.402 67.6892L33.6242 68.148C33.9069 68.717 34.1183 69.3188 34.2534 69.9397C33.5801 71.4447 32.3496 72.2269 30.562 72.2861C29.171 72.1433 28.0072 71.699 27.0706 70.9533C26.9342 70.8468 26.8056 70.7306 26.6858 70.6056L26.3011 70.2014C26.0546 68.5529 26.0496 66.5864 26.2859 64.302C26.3795 63.3642 26.5141 62.3722 26.6899 61.3259L26.705 61.2522L26.703 61.2502ZM30.3519 65.5459V67.2487L30.5539 67.2638C30.8151 67.2692 31.0683 67.1737 31.2609 66.997C31.357 66.9283 31.4348 66.8372 31.4876 66.7315C31.5404 66.6258 31.5666 66.5088 31.5639 66.3907C31.5634 66.2731 31.5358 66.1573 31.4833 66.0521C31.4307 65.9469 31.3546 65.8553 31.2609 65.7844C31.0623 65.6204 30.8113 65.5336 30.5539 65.5398L30.3519 65.5469V65.5459ZM36.655 63.9483C36.5944 63.5825 36.508 63.2215 36.3965 62.868C36.1696 62.1202 35.8033 61.4221 35.3168 60.8106C36.3625 60.0311 37.6754 59.5649 39.2556 59.412L39.5071 59.3898L39.5222 59.412C40.0506 60.3859 40.6361 61.3276 41.2755 62.2324C42.0043 61.3415 42.6181 60.3623 43.1025 59.318C44.1879 59.5599 45.0756 59.925 45.7657 60.4134L45.7809 60.4286L45.8324 60.4508C46.2269 60.7419 46.6016 61.0403 46.9565 61.3462L46.5646 62.4264L45.9071 63.9665L45.892 63.9958C44.4777 67.1734 42.5977 70.1222 40.314 72.7449C38.7506 71.8813 37.4714 70.8623 36.4763 69.6881L39.1465 66.7201L38.6658 66.4018C37.6451 65.7457 36.9745 64.9315 36.654 63.9594V63.9442L36.655 63.9483ZM9.20065 59.4979C11.366 59.6111 12.8136 60.6991 13.5434 62.7619L13.7797 63.5764L13.8393 63.8351L13.9282 64.2716L13.8393 65.0558C13.7805 65.4433 13.6806 65.8233 13.5414 66.1896C13.2762 66.9112 12.7992 67.5358 12.1729 67.9813C12.4544 68.7412 12.452 69.5358 12.1659 70.3651C11.4616 71.5245 10.3813 72.0995 8.92494 72.0901C6.92255 71.8732 5.52445 71.1476 4.73063 69.9134C4.29118 67.2235 4.27108 64.4818 4.67105 61.7857L4.85587 61.519C5.72577 60.3211 7.16326 59.6501 9.16833 59.506H9.19762L9.20065 59.4979ZM8.59166 65.5459V67.2487L8.78355 67.2638C9.04546 67.2692 9.29951 67.1742 9.49354 66.998C9.58794 66.9282 9.66413 66.8367 9.71564 66.7311C9.76715 66.6256 9.79247 66.5091 9.78945 66.3917C9.78936 66.2748 9.76267 66.1595 9.7114 66.0544C9.66013 65.9494 9.58563 65.8574 9.49354 65.7854C9.29454 65.6222 9.04382 65.5355 8.78658 65.5409L8.59469 65.5479L8.59166 65.5459ZM9.44506 68.6493C9.27972 68.5101 9.06918 68.4364 8.85323 68.4421L8.67548 68.4572V69.9084L8.85323 69.9154C9.07177 69.9204 9.28378 69.8408 9.44506 69.6931C9.52861 69.6352 9.59664 69.5577 9.64314 69.4673C9.68964 69.3769 9.71318 69.2764 9.71169 69.1747C9.71162 69.0723 9.68744 68.9714 9.64112 68.8801C9.59479 68.7888 9.52763 68.7097 9.44506 68.6493ZM30.4408 68.4572V69.9084L30.6105 69.9154C30.831 69.9194 31.0449 69.84 31.2094 69.6931C31.2911 69.634 31.3573 69.556 31.4024 69.4657C31.4474 69.3755 31.4699 69.2756 31.4679 69.1747C31.4682 69.0731 31.4451 68.9728 31.4002 68.8817C31.3554 68.7905 31.2901 68.711 31.2094 68.6493C31.041 68.5106 30.8285 68.437 30.6105 68.4421L30.4408 68.4572ZM20.8463 68.7159C21.0382 69.3789 21.1067 70.0715 21.0483 70.7592C20.3621 71.0955 19.614 71.2871 18.8507 71.3221C18.5692 70.3116 18.4757 69.5244 18.5699 68.9605C19.5758 68.788 20.3353 68.7065 20.8484 68.7159H20.8463ZM66.2494 63.0014C66.5551 64.373 66.2097 65.7103 65.2132 67.0132C65.5128 67.9674 65.9898 68.8564 66.6191 69.6335C65.7466 70.6059 64.6882 71.3934 63.5064 71.9496C62.9426 71.2396 62.4421 70.4815 62.0107 69.684C61.9008 70.2387 61.7063 70.7731 61.434 71.2685C60.2663 71.344 59.0938 71.2762 57.9426 71.0664C57.7898 70.9627 57.6861 70.669 57.6316 70.1853V63.8189L57.6387 63.8038L57.676 59.8728C59.1505 59.6411 60.7362 59.7027 62.4329 60.0577C64.1296 60.4128 65.3725 61.2936 66.1616 62.7003L66.2434 62.9963L66.2494 63.0014ZM67.013 63.056C67.7085 61.8272 68.542 60.9177 69.5136 60.3275C70.4556 59.7544 71.5423 59.464 72.6444 59.4908C73.9762 59.5582 75.0983 59.8691 76.0106 60.4235C77.0515 61.0555 77.8234 62.0077 78.3264 63.2803L78.496 63.7613L78.5698 63.9978C78.8759 64.9161 78.8759 65.909 78.5698 66.8273C77.7113 69.7834 75.6992 71.3625 72.5333 71.5646C69.9243 71.5943 68.0131 69.9313 66.7999 66.5756C66.4942 65.2532 66.5558 64.0961 66.9847 63.1045L67.014 63.06L67.013 63.056ZM47.2089 60.2467C48.7195 59.928 50.2875 60.0149 51.7537 60.4983L51.8941 64.2292L53.0404 62.2385C53.4693 61.4536 53.8342 60.7331 54.1352 60.0769C55.0698 60.6572 55.9252 61.3562 56.6802 62.1566L56.8206 62.2971L57.0428 62.5558L56.7075 63.4612L56.663 63.5875C56.1101 64.792 55.4746 65.9569 54.7613 67.0738C55.3087 67.9496 55.8339 68.6331 56.3368 69.1242C55.2272 70.481 54.1274 71.4703 53.0373 72.0921C52.5492 71.8226 52.194 71.5363 51.9718 71.2332C51.9063 70.8292 51.8097 70.4309 51.683 70.0418L51.2043 70.7875C49.9155 71.0442 48.5895 71.0517 47.2978 70.8098C46.8862 68.6669 46.7347 66.4822 46.8464 64.303L47.2089 60.2467ZM61.8532 66.7009C61.8264 67.2223 61.8948 67.7442 62.0551 68.241L62.1733 68.0783C62.4045 67.8383 62.6597 67.6226 62.9348 67.4346C62.5948 66.8956 62.2373 66.5972 61.8622 66.5393L61.8552 66.702L61.8532 66.7009ZM74.332 68.8402C74.4759 68.8424 74.6186 68.8146 74.7511 68.7586C74.8836 68.7026 75.0029 68.6196 75.1016 68.5148C75.2047 68.4149 75.2867 68.2952 75.3427 68.1629C75.3987 68.0307 75.4275 67.8885 75.4275 67.7448C75.4275 67.6012 75.3987 67.459 75.3427 67.3267C75.2867 67.1944 75.2047 67.0748 75.1016 66.9748C74.9745 66.8484 74.8182 66.7553 74.6466 66.7037C74.475 66.6521 74.2933 66.6436 74.1176 66.6789C73.9419 66.7143 73.7777 66.7924 73.6393 66.9064C73.501 67.0204 73.3929 67.1667 73.3245 67.3324C73.2561 67.4982 73.2296 67.6782 73.2473 67.8567C73.265 68.0351 73.3264 68.2064 73.426 68.3555C73.5256 68.5045 73.6604 68.6267 73.8184 68.7113C73.9764 68.7958 74.1528 68.8401 74.332 68.8402Z" fill="#FCEE23"/>
</g>
<defs>
<clipPath id="clip0">
<rect width="105" height="74" fill="white"/>
</clipPath>
</defs>
</svg>
