<svg width="30" height="30" viewBox="0 0 30 30" fill="none" xmlns="http://www.w3.org/2000/svg">
<g clip-path="url(#clip0)">
<path d="M26.2503 14.1675V17.7659C26.2503 18.1797 25.8851 18.5156 25.4351 18.5156H4.56534C4.11534 18.5156 3.75012 18.1797 3.75012 17.7659V14.1675C3.75012 13.7537 4.11534 13.4178 4.56534 13.4178H25.4351C25.8851 13.4178 26.2503 13.7537 26.2503 14.1675V14.1675Z" fill="#D6F9FA"/>
<path d="M26.2503 14.1675V17.7659C26.2503 18.1797 25.8851 18.5156 25.4351 18.5156H15.0002V13.4178H25.4351C25.8851 13.4178 26.2503 13.7537 26.2503 14.1675V14.1675Z" fill="#ADF2F5"/>
<path d="M29.7982 20.7685C29.4894 20.3952 28.9357 20.3425 28.5613 20.6507C28.5537 20.6571 28.0609 21.0579 27.1293 21.6023V4.45287C27.1293 3.96771 26.7355 3.57396 26.2503 3.57396C25.7652 3.57396 25.3714 3.96771 25.3714 4.45287V5.44898H4.62898V4.45287C4.62898 3.96771 4.23522 3.57396 3.75006 3.57396C3.2649 3.57396 2.87115 3.96771 2.87115 4.45287V21.6023C1.9395 21.0585 1.44731 20.6571 1.44027 20.6519C1.06703 20.3419 0.512726 20.3929 0.202762 20.7667C-0.107202 21.14 -0.0562245 21.6943 0.317607 22.0042C0.373272 22.0505 1.71098 23.1503 4.19597 24.2419C10.8254 27.1548 19.1782 27.1534 25.8044 24.2419C28.2894 23.1503 29.6271 22.0505 29.6827 22.0042C30.056 21.6948 30.107 21.1423 29.7982 20.7685V20.7685ZM15.8791 7.20681H19.7463V17.6366H15.8791V7.20681ZM10.254 7.20681H14.1213V17.6366H10.254V7.20681ZM4.62898 7.20681H8.4962V17.6366H4.62898V7.20681ZM25.3714 22.5099C19.1099 25.3775 10.9313 25.396 4.62898 22.5099V19.3944H25.3714V22.5099ZM25.3714 17.6366H21.5041V7.20681H25.3714V17.6366Z" fill="#FEF77D"/>
<path d="M29.7982 20.7685C29.4894 20.3952 28.9357 20.3425 28.5613 20.6507C28.5537 20.6572 28.0609 21.0579 27.1292 21.6023V4.4529C27.1292 3.96774 26.7355 3.57399 26.2503 3.57399C25.7652 3.57399 25.3714 3.96774 25.3714 4.4529V5.44901H15.0002V19.3944H25.3714V22.5099C22.4469 23.8493 18.853 24.6679 15.0002 24.6679V26.4258C19.8225 26.4258 23.5374 25.2381 25.8044 24.242C28.2894 23.1503 29.6271 22.0505 29.6827 22.0042C30.056 21.6949 30.107 21.1423 29.7982 20.7685V20.7685ZM19.7463 17.6366H15.8791V7.20684H19.7463V17.6366ZM25.3714 17.6366H21.5041V7.20684H25.3714V17.6366Z" fill="#F4DE48"/>
</g>
<defs>
<clipPath id="clip0">
<rect width="30" height="30" fill="white"/>
</clipPath>
</defs>
</svg>
