<svg width="30" height="30" viewBox="0 0 30 30" fill="none" xmlns="http://www.w3.org/2000/svg">
<g opacity="0.3" clip-path="url(#clip0)">
<path d="M26.6601 20.785V13.226C27.9205 13.8289 28.5997 14.3085 28.6079 14.3143C29.0043 14.5993 29.5529 14.5056 29.8346 14.1139C30.118 13.7198 30.0283 13.1706 29.6342 12.8872C29.5772 12.8462 28.2109 11.8732 25.7182 10.9063C23.5857 10.0791 20.1959 9.10312 15.8789 8.98394C15.8789 6.36534 15.8864 6.51704 15.8612 6.39311C17.2212 6.01542 18.2227 4.76697 18.2227 3.28824C18.2227 1.50378 16.7789 0.00700378 15 0.00700378C13.2226 0.00700378 11.7774 1.50249 11.7774 3.28824C11.7774 4.76697 12.7788 6.01536 14.1389 6.39311C14.1136 6.51716 14.1211 6.36534 14.1211 8.98394C9.80412 9.10312 6.41431 10.0791 4.2818 10.9063C1.78912 11.8731 0.422837 12.8462 0.365825 12.8872C-0.0282743 13.1705 -0.117981 13.7198 0.165436 14.1139C0.448852 14.508 0.998049 14.5978 1.39215 14.3143C1.4102 14.3013 2.08349 13.8267 3.33991 13.227V19.0163C1.44289 19.5948 0.0586784 21.3608 0.0586784 23.4445C0.0586784 25.9969 2.13517 28.0734 4.68756 28.0734C5.95295 28.0734 7.13425 27.5727 8.01391 26.6636C8.44657 26.2165 8.28966 25.4718 7.71245 25.2379C6.97833 24.9403 6.50396 24.2364 6.50396 23.4445C6.50396 22.6526 6.97833 21.9486 7.71245 21.651C8.28907 21.4173 8.44692 20.6729 8.01397 20.2254C7.23017 19.4153 6.20666 18.9307 5.09772 18.8345V12.4786C7.2614 11.6592 10.3181 10.8523 14.1233 10.7427C14.1197 10.812 14.114 10.3474 14.2124 16.5275C12.3549 15.8586 10.3711 17.2279 10.3711 19.2258C10.3711 19.9918 10.6694 20.7119 11.2111 21.2535L14.4923 24.5347C14.8355 24.878 15.392 24.878 15.7352 24.5347L19.0165 21.2535C19.5581 20.7119 19.8564 19.9917 19.8564 19.2258C19.8564 17.2165 17.8433 15.8337 15.9707 16.5437C15.8698 10.2072 15.8803 10.8122 15.8767 10.7429C19.8129 10.8576 22.9152 11.7242 24.9024 12.4765V20.7851L21.8221 24.519C21.5557 24.8419 21.554 25.3079 21.8181 25.6328L25.0994 29.6688C25.451 30.1015 26.1121 30.1009 26.4632 29.6688L29.7445 25.6328C30.0086 25.3079 30.0069 24.8419 29.7406 24.519L26.6601 20.785ZM5.84361 26.0749C3.95263 26.9062 1.81654 25.5136 1.81654 23.4445C1.81654 21.3715 3.95708 19.9848 5.84361 20.8141C4.37965 22.254 4.38077 24.6362 5.84361 26.0749ZM13.5352 3.2883C13.5352 2.46254 14.206 1.76487 15 1.76487C15.7941 1.76487 16.4649 2.46254 16.4649 3.2883C16.4649 4.09601 15.8077 4.75314 15 4.75314C14.1923 4.75314 13.5352 4.09607 13.5352 3.2883ZM16.9887 18.1159C17.975 18.1159 18.468 19.316 17.7735 20.0105L15.1137 22.6703L12.454 20.0105C11.7592 19.3157 12.2527 18.1159 13.2388 18.1159C13.5352 18.1159 13.8138 18.2314 14.0236 18.441L14.4923 18.9097C14.8355 19.253 15.392 19.253 15.7352 18.9097L16.204 18.441C16.4136 18.2314 16.6923 18.1159 16.9887 18.1159ZM25.7812 27.721L23.636 25.0823L25.7812 22.4819L27.9264 25.0823L25.7812 27.721Z" fill="#18192E"/>
</g>
<defs>
<clipPath id="clip0">
<rect width="30" height="30" fill="white"/>
</clipPath>
</defs>
</svg>
