<svg width="30" height="30" viewBox="0 0 30 30" fill="none" xmlns="http://www.w3.org/2000/svg">
<g opacity="0.3" clip-path="url(#clip0)">
<path d="M29.971 12.406C29.9895 12.334 29.9996 12.258 29.9996 12.1872C29.9996 5.35148 24.8058 3.05176e-05 18.7499 3.05176e-05H17.3437C16.9649 3.05176e-05 16.6287 0.242719 16.5095 0.602298L12.9592 11.3083H5.3369L4.20426 7.62719C3.76716 6.20674 2.39991 5.21472 0.879277 5.21472C0.393901 5.21472 0.000396729 5.60823 0.000396729 6.0936C0.000396729 6.57898 0.393901 6.97248 0.879277 6.97248C1.62351 6.97248 2.31531 7.46524 2.52419 8.14409C3.9795 12.8738 4.03246 12.9653 5.50969 17.1015C6.04944 18.6129 7.74749 19.6284 9.73499 19.6284H12.7643L11.9437 21.6794C9.38725 21.2483 7.09003 23.2293 7.09003 25.7805C7.09003 28.0881 8.95865 29.9992 11.2501 29.9992C13.264 29.9992 14.9211 28.5321 15.3175 26.6594H18.4324C18.5973 27.4384 18.9796 28.1587 19.5507 28.7438C21.185 30.4186 23.8141 30.419 25.4489 28.7438C26.2298 27.9437 26.6598 26.8913 26.6598 25.7805C26.6598 23.2289 24.3621 21.2484 21.8061 21.6794L20.9855 19.6284H24.0149C26.0002 19.6284 27.6967 18.6151 28.2384 17.1064C30.0546 12.1954 29.9527 12.477 29.971 12.406V12.406ZM17.9782 1.75779H18.7499C23.7145 1.75779 27.8011 5.9671 28.2085 11.3083H14.8112L17.9782 1.75779ZM11.2501 28.2414C9.94791 28.2414 8.84779 27.1144 8.84779 25.7805C8.84779 24.4559 9.92547 23.3783 11.2501 23.3783C12.5747 23.3783 13.6523 24.4559 13.6523 25.7805C13.6523 27.1144 12.5523 28.2414 11.2501 28.2414ZM24.902 25.7805C24.902 27.1144 23.8019 28.2414 22.4997 28.2414C21.1975 28.2414 20.0975 27.1144 20.0975 25.7805C20.0975 24.4559 21.1751 23.3783 22.4997 23.3783C23.8243 23.3783 24.902 24.4559 24.902 25.7805ZM20.1743 22.3328C19.3009 22.9238 18.6638 23.8378 18.434 24.9016H15.3159C15.0861 23.8378 14.4489 22.9238 13.5756 22.3328L14.6575 19.6284H19.0923L20.1743 22.3328ZM26.5882 16.5011C26.2433 17.4322 25.0229 17.8706 24.0149 17.8706C23.5567 17.8706 10.2457 17.8706 9.73505 17.8706C8.52741 17.8706 7.4465 17.2985 7.16503 16.5103L5.93495 13.0661H27.8586L26.5882 16.5011Z" fill="#18192E"/>
</g>
<defs>
<clipPath id="clip0">
<rect width="30" height="30" fill="white"/>
</clipPath>
</defs>
</svg>
