<svg width="80" height="65" viewBox="0 0 80 65" fill="none" xmlns="http://www.w3.org/2000/svg">
<g clip-path="url(#clip0_848_7429)">
<path d="M62.6756 41.7397C62.6756 44.7474 61.4755 47.6319 59.3393 49.7587C57.2031 51.8855 54.3058 53.0803 51.2847 53.0803H26.6044C26.1009 53.0803 25.618 52.8812 25.262 52.5267C24.9059 52.1722 24.7059 51.6915 24.7059 51.1902C24.7059 50.6889 24.9059 50.2081 25.262 49.8537C25.618 49.4992 26.1009 49.3001 26.6044 49.3001H51.2847C53.2987 49.3001 55.2303 48.5036 56.6544 47.0857C58.0786 45.6679 58.8786 43.7448 58.8786 41.7397C58.8786 39.7346 58.0786 37.8116 56.6544 36.3937C55.2303 34.9759 53.2987 34.1793 51.2847 34.1793H25.2755L31.4645 38.2619C31.8833 38.546 32.1735 38.9823 32.2729 39.477C32.3723 39.9717 32.2729 40.4855 31.9961 40.9081C31.8155 41.1626 31.5768 41.3708 31.2995 41.5154C31.0222 41.66 30.7144 41.7369 30.4014 41.7397C30.0267 41.7322 29.6603 41.628 29.3382 41.4373L17.9473 33.8769C17.6889 33.6997 17.4776 33.4626 17.3316 33.186C17.1856 32.9094 17.1094 32.6017 17.1094 32.2892C17.1094 31.9768 17.1856 31.669 17.3316 31.3925C17.4776 31.1159 17.6889 30.8788 17.9473 30.7015L29.3382 23.1412C29.5477 23.0022 29.7825 22.9056 30.0294 22.857C30.2763 22.8083 30.5305 22.8086 30.7773 22.8577C31.0241 22.9069 31.2587 23.0039 31.4679 23.1434C31.677 23.2828 31.8565 23.4619 31.9961 23.6704C32.1357 23.8789 32.2327 24.1127 32.2816 24.3585C32.3304 24.6043 32.3301 24.8573 32.2808 25.1031C32.2314 25.3488 32.1339 25.5824 31.9939 25.7906C31.8538 25.9988 31.674 26.1775 31.4645 26.3165L25.2755 30.3991H51.2847C54.3058 30.3991 57.2031 31.5939 59.3393 33.7207C61.4755 35.8475 62.6756 38.732 62.6756 41.7397Z" fill="white"/>
<path d="M79.1923 12.0653L67.8014 0.724693C67.6319 0.543103 67.4261 0.398841 67.1972 0.301185C66.9683 0.20353 66.7214 0.154642 66.4725 0.157664H13.3149C13.0659 0.154642 12.8191 0.20353 12.5902 0.301185C12.3613 0.398841 12.1555 0.543103 11.986 0.724693L0.595069 12.0653C0.412673 12.234 0.267772 12.4389 0.169683 12.6668C0.0715936 12.8947 0.0224879 13.1405 0.0255232 13.3883V62.5309C0.0255232 63.0321 0.225542 63.5129 0.581577 63.8674C0.937611 64.2218 1.4205 64.421 1.92401 64.421H77.8633C78.3669 64.421 78.8497 64.2218 79.2058 63.8674C79.5618 63.5129 79.7618 63.0321 79.7618 62.5309V13.3883C79.7649 13.1405 79.7158 12.8947 79.6177 12.6668C79.5196 12.4389 79.3747 12.234 79.1923 12.0653ZM14.1123 3.93786H65.6751L73.269 11.4982H6.51834L14.1123 3.93786ZM75.9649 60.6408H3.82249V15.2784H75.9649V60.6408Z" fill="white"/>
</g>
<defs>
<clipPath id="clip0_848_7429">
<rect width="80" height="64.5783" fill="white"/>
</clipPath>
</defs>
</svg>
