<svg width="24" height="22" viewBox="0 0 24 22" fill="none" xmlns="http://www.w3.org/2000/svg">
<g clip-path="url(#clip0_706_7529)">
<path d="M7.17383 12.0556V12.8813C7.17383 13.0103 7.22509 13.1341 7.31634 13.2253C7.40759 13.3166 7.53136 13.3678 7.6604 13.3678C7.78945 13.3678 7.91321 13.3166 8.00446 13.2253C8.09571 13.1341 8.14698 13.0103 8.14698 12.8813V12.0556C8.14698 11.9266 8.09571 11.8028 8.00446 11.7116C7.91321 11.6203 7.78945 11.5691 7.6604 11.5691C7.53136 11.5691 7.40759 11.6203 7.31634 11.7116C7.22509 11.8028 7.17383 11.9266 7.17383 12.0556V12.0556Z" fill="#E65D40"/>
<path d="M16.4348 13.3497C16.5639 13.3497 16.6876 13.2985 16.7789 13.2072C16.8701 13.1159 16.9214 12.9922 16.9214 12.8631V12.0556C16.9214 11.9266 16.8701 11.8028 16.7789 11.7116C16.6876 11.6203 16.5639 11.5691 16.4348 11.5691C16.3058 11.5691 16.182 11.6203 16.0908 11.7116C15.9995 11.8028 15.9482 11.9266 15.9482 12.0556V12.8813C15.9529 13.0071 16.0063 13.1263 16.097 13.2137C16.1878 13.301 16.3088 13.3498 16.4348 13.3497V13.3497Z" fill="#E65D40"/>
<path d="M2.67891 14.607C3.3041 16.5881 4.54449 18.3184 6.21998 19.5466C7.89548 20.7748 9.91884 21.437 11.9963 21.437C14.0737 21.437 16.0971 20.7748 17.7726 19.5466C19.4481 18.3184 20.6885 16.5881 21.3137 14.607C22.0411 14.5406 22.7181 14.2067 23.2135 13.6699C23.709 13.1331 23.9877 12.4316 23.9958 11.7012C24.0038 10.9708 23.7406 10.2633 23.2571 9.71574C22.7736 9.16818 22.1042 8.81944 21.3784 8.73702H21.3137C20.7152 6.85235 19.5625 5.19185 18.006 3.97221C17.903 3.89293 17.7728 3.8578 17.6439 3.87455C17.515 3.89129 17.3981 3.95854 17.3188 4.06151C17.2395 4.16447 17.2044 4.29471 17.2212 4.42358C17.2379 4.55244 17.3052 4.66938 17.4081 4.74866C18.7487 5.8025 19.7569 7.22051 20.312 8.83278C19.857 8.94382 19.4348 9.16113 19.0801 9.46688C19.0066 9.5327 18.9549 9.61928 18.9318 9.71515C18.9087 9.81102 18.9152 9.91165 18.9506 10.0037C18.986 10.0958 19.0485 10.1749 19.1298 10.2306C19.2112 10.2864 19.3076 10.3161 19.4062 10.3158C19.527 10.3162 19.6435 10.2709 19.7323 10.189C20.076 9.88156 20.5164 9.70396 20.9772 9.68687V9.68687C21.0771 9.6787 21.1775 9.6787 21.2774 9.68687C21.7791 9.74455 22.2398 9.99201 22.5648 10.3785C22.8899 10.765 23.0548 11.2612 23.0256 11.7653C22.9965 12.2695 22.7756 12.7434 22.4081 13.0899C22.0407 13.4364 21.5547 13.6291 21.0497 13.6286H21.0264C20.909 13.6104 20.7891 13.6359 20.6894 13.7003C20.5896 13.7647 20.517 13.8636 20.4854 13.978C19.9747 15.8367 18.8679 17.4763 17.3349 18.6449C15.802 19.8135 13.9277 20.4464 12.0002 20.4464C10.0726 20.4464 8.19835 19.8135 6.66539 18.6449C5.13243 17.4763 4.02557 15.8367 3.51488 13.978C3.48426 13.8676 3.41543 13.7716 3.32063 13.7071C3.22584 13.6426 3.11124 13.6139 2.99725 13.626H2.95325C2.67507 13.6257 2.40005 13.567 2.14595 13.4537C1.89185 13.3405 1.66431 13.1752 1.478 12.9687C1.23588 12.6985 1.07272 12.367 1.00638 12.0104C0.940042 11.6538 0.973083 11.2858 1.10188 10.9467C1.23068 10.6076 1.45029 10.3105 1.73665 10.0878C2.02301 9.86513 2.36511 9.72554 2.72549 9.68428C2.82627 9.67608 2.92754 9.67608 3.02831 9.68428V9.68428C3.4898 9.70185 3.93082 9.87935 4.2758 10.1864C4.32295 10.2294 4.37814 10.2627 4.4382 10.2843C4.49825 10.3059 4.56198 10.3154 4.62573 10.3123C4.68948 10.3091 4.75198 10.2934 4.80963 10.2661C4.86728 10.2387 4.91896 10.2002 4.96167 10.1527C5.00476 10.1054 5.03808 10.05 5.05972 9.9897C5.08136 9.92943 5.09089 9.86549 5.08777 9.80153C5.08464 9.73757 5.06892 9.67486 5.0415 9.61699C5.01409 9.55912 4.97553 9.50722 4.92802 9.46429C4.57081 9.14591 4.14194 8.9186 3.67793 8.80172C4.11516 7.53277 4.8362 6.38034 5.78615 5.43219C6.73609 4.48404 7.88989 3.76517 9.15966 3.33035C9.25366 3.90268 9.54821 4.4229 9.99061 4.79797C10.433 5.17304 10.9944 5.37849 11.5744 5.37758C11.8277 5.3906 12.0808 5.3503 12.3175 5.25931C12.5542 5.16831 12.7691 5.02864 12.9485 4.84933C13.1278 4.67003 13.2674 4.45507 13.3584 4.21838C13.4494 3.98169 13.4897 3.72853 13.4767 3.47529C13.4767 3.24689 13.4317 3.02072 13.3443 2.80971C13.2569 2.59869 13.1288 2.40696 12.9673 2.24546C12.8058 2.08395 12.6141 1.95584 12.403 1.86844C12.192 1.78103 11.9659 1.73604 11.7375 1.73604C11.6084 1.73604 11.4847 1.78731 11.3934 1.87856C11.3022 1.96981 11.2509 2.09357 11.2509 2.22262C11.2509 2.35167 11.3022 2.47543 11.3934 2.56668C11.4847 2.65793 11.6084 2.70919 11.7375 2.70919C11.9434 2.70919 12.1409 2.791 12.2865 2.93661C12.4321 3.08222 12.5139 3.27971 12.5139 3.48564C12.5285 3.6114 12.5144 3.73883 12.4726 3.85837C12.4309 3.9779 12.3627 4.08644 12.273 4.17584C12.1834 4.26524 12.0747 4.33317 11.955 4.37456C11.8354 4.41594 11.7079 4.4297 11.5822 4.41479C11.192 4.41479 10.8179 4.25999 10.5418 3.98437C10.2657 3.70875 10.1102 3.33484 10.1095 2.94472C10.1095 2.88001 10.1095 2.81531 10.1095 2.75319C10.156 2.26833 10.3818 1.8183 10.7428 1.4913C11.1038 1.1643 11.5739 0.983905 12.061 0.985479C12.742 0.989554 13.394 1.2619 13.8756 1.74349C14.3572 2.22507 14.6295 2.87706 14.6336 3.55811C14.6281 4.44114 14.2733 5.28609 13.6468 5.90831C13.0202 6.53053 12.1728 6.87942 11.2897 6.87872C11.1607 6.87872 11.0369 6.92998 10.9457 7.02123C10.8544 7.11248 10.8031 7.23624 10.8031 7.36529C10.8031 7.49434 10.8544 7.6181 10.9457 7.70935C11.0369 7.8006 11.1607 7.85187 11.2897 7.85187C12.4326 7.85049 13.5283 7.39568 14.3362 6.58727C15.1442 5.77886 15.5983 4.68291 15.599 3.53999C15.5983 2.5998 15.2245 1.69832 14.5597 1.03351C13.8949 0.368692 12.9934 -0.00510045 12.0532 -0.00578597C11.3799 -0.00774488 10.7267 0.223074 10.2041 0.647575C9.68145 1.07208 9.32162 1.66416 9.18554 2.32356C7.66197 2.78402 6.27363 3.60897 5.14076 4.72696C4.0079 5.84495 3.16465 7.22226 2.68408 8.7396H2.6168C1.89097 8.82174 1.22141 9.17019 0.737691 9.71754C0.253973 10.2649 -0.00951705 10.9722 -0.00178777 11.7026C0.0059415 12.433 0.284341 13.1346 0.779533 13.6716C1.27473 14.2086 1.95151 14.5428 2.67891 14.6095V14.607Z" fill="#E65D40"/>
<path d="M13.9918 15.397C13.7712 15.722 13.4744 15.9882 13.1272 16.1721C12.78 16.3561 12.3931 16.4522 12.0003 16.4522C11.6074 16.4522 11.2205 16.3561 10.8733 16.1721C10.5262 15.9882 10.2293 15.722 10.0087 15.397C9.93591 15.2902 9.82373 15.2168 9.6968 15.1927C9.56988 15.1687 9.4386 15.1961 9.33186 15.2688C9.22513 15.3416 9.15167 15.4538 9.12764 15.5807C9.10362 15.7076 9.13099 15.8389 9.20375 15.9457C9.514 16.4015 9.93098 16.7746 10.4184 17.0325C10.9058 17.2903 11.4488 17.4251 12.0003 17.4251C12.5517 17.4251 13.0947 17.2903 13.5821 17.0325C14.0695 16.7746 14.4865 16.4015 14.7968 15.9457C14.8328 15.8928 14.8581 15.8334 14.8711 15.7708C14.8842 15.7081 14.8848 15.6436 14.8729 15.5807C14.861 15.5179 14.8368 15.458 14.8018 15.4045C14.7667 15.351 14.7215 15.3049 14.6686 15.2688C14.6158 15.2328 14.5564 15.2076 14.4938 15.1945C14.4311 15.1814 14.3666 15.1808 14.3037 15.1927C14.2409 15.2046 14.181 15.2288 14.1275 15.2638C14.074 15.2989 14.0279 15.3441 13.9918 15.397V15.397Z" fill="#E65D40"/>
</g>
<defs>
<clipPath id="clip0_706_7529">
<rect width="24" height="21.4403" fill="white"/>
</clipPath>
</defs>
</svg>
