<svg width="18" height="18" viewBox="0 0 18 18" fill="none" xmlns="http://www.w3.org/2000/svg">
<path d="M1 1.8H0.2V0.2H17.8V1.8H17H16.893L16.8336 1.88906L11.8336 9.38906L11.8 9.43944V9.5V17.8H6.2V9.5V9.43944L6.16641 9.38906L1.16641 1.88906L1.10704 1.8H1ZM3.404 1.8H3.0303L3.23759 2.11094L7.8 8.95456V16V16.2H8H10H10.2V16V8.95456L14.7624 2.11094L14.9697 1.8H14.596H3.404Z" fill="#18192E"/>
</svg>
