<svg width="30" height="30" viewBox="0 0 30 30" fill="none" xmlns="http://www.w3.org/2000/svg">
<g clip-path="url(#clip0)">
<path d="M28.9128 9.31644C28.8232 9.62763 28.7657 9.97972 28.7657 10.3711C28.7657 12.1284 29.8954 13.0946 29.9312 13.1244C29.9563 13.9266 29.5948 15.4776 29.5849 15.5192C29.5843 15.5221 29.5836 15.5244 29.5831 15.5274C25.2724 15.5274 17.371 23.5559 17.371 26.9356C17.3617 26.9379 16.0853 27.1472 14.961 27.1289C14.1607 27.1296 13.3567 27.0663 12.5581 26.9368C12.5558 26.9362 12.5534 26.9362 12.5511 26.9356C12.5511 23.5559 4.64972 15.5274 0.338976 15.5274C0.159093 14.7481 0.0413197 13.946 -0.00965691 13.125C-0.00965691 13.125 1.15636 12.1565 1.15636 10.3711C1.15636 9.97972 1.09894 9.62763 1.00929 9.31644C0.689952 8.20784 -0.0389538 7.61722 -0.0389538 7.61722V3.75003C-0.0389538 3.26493 0.354796 2.87112 0.839952 2.87112H29.0821C29.5673 2.87112 29.961 3.26493 29.961 3.75003V7.61722C29.961 7.61722 29.2321 8.20784 28.9128 9.31644Z" fill="#3AC7CF"/>
<path d="M28.9115 9.31644C28.8219 9.62763 28.7644 9.97972 28.7644 10.3711C28.7644 12.1284 29.8941 13.0946 29.9299 13.1244C29.8719 14.3701 29.5824 15.5244 29.5818 15.5274C25.2711 15.5274 17.3697 23.5559 17.3697 26.9356C17.3604 26.9379 16.2965 27.1289 14.9598 27.1289V2.87112H29.0808C29.566 2.87112 29.9598 3.26493 29.9598 3.75003V7.61722C29.9598 7.61722 29.2308 8.20784 28.9115 9.31644Z" fill="#01B1BC"/>
<path d="M12.5577 25.8657C12.5577 25.878 12.5577 26.4065 12.5571 26.9367C12.195 26.8782 11.8341 26.8061 11.4749 26.7205C11.3952 26.7018 11.3161 26.6819 11.2364 26.6619C11.2124 26.6556 11.1878 26.6491 11.1632 26.6426C6.2782 25.3665 2.31082 21.661 0.717652 16.8791C0.6948 16.8106 0.672534 16.7414 0.650269 16.6717C0.646753 16.6606 0.643238 16.6494 0.640308 16.6383C0.525464 16.2739 0.424683 15.9035 0.337964 15.5274H2.30378C7.84037 15.5274 12.5577 19.9764 12.5577 25.8657V25.8657Z" fill="white"/>
<path d="M29.5821 15.5274C29.5803 15.5356 29.578 15.5438 29.5762 15.552C29.5604 15.6223 27.001 24.7559 17.3706 26.9356H17.3699C17.3646 26.5337 17.3623 25.9055 17.3623 25.8657C17.3623 19.9764 22.0797 15.5274 27.6162 15.5274H29.5821Z" fill="#D6F9FA"/>
<path d="M29.96 3.75003V7.61722C29.96 7.61722 29.2311 8.20784 28.9118 9.31644H1.00829C0.688952 8.20784 -0.0399542 7.61722 -0.0399542 7.61722V3.75003C-0.0399542 3.26493 0.353796 2.87112 0.838952 2.87112H29.0811C29.5664 2.87112 29.96 3.26487 29.96 3.75003Z" fill="#74DCE2"/>
<path d="M29.96 3.75003V7.61722C29.96 7.61722 29.2311 8.20784 28.9118 9.31644H14.96V2.87112H29.0811C29.5664 2.87112 29.96 3.26487 29.96 3.75003Z" fill="#3AC7CF"/>
<path d="M12.089 8.49612V10.3711C12.089 11.8899 10.8538 13.125 9.33505 13.125H-0.0106573C-0.0288214 12.8373 -0.0387823 12.5479 -0.0399542 12.2561V7.61722H11.21C11.6952 7.61722 12.089 8.01097 12.089 8.49612Z" fill="#FEF77D"/>
<path d="M29.96 7.55862C29.96 7.55862 29.9707 12.6856 29.9343 13.0664H20.585C19.0663 13.0664 17.8311 11.8313 17.8311 10.3125V8.43753C17.8311 7.95243 18.2249 7.55862 18.71 7.55862H29.96Z" fill="#F4DE48"/>
</g>
<defs>
<clipPath id="clip0">
<rect width="30" height="30" fill="white"/>
</clipPath>
</defs>
</svg>
